ALX 022
BLR 021
BRD 021
BSN 021
CMN 004
CMY 021
CNL 021
DSM 021
FAN 022
GUL 021
IBK 022
JRI 021
KEN 022
KRN 021
LAR 025
NCL 021
NSH 021
RMK 023
RSD 021
RYU 025
URN 022
VEG 023
Z20 023
Z21 024
Z22 022
Z23 023
Z24 025
Z25 023
Z26 003
Z27 003
Z28 002
Z29 000
Z30 000
Z31 000
ZGF 022